// Jest Snapshot v1, https://goo.gl/fbAQLP

exports[`<MobileInput should render correctly /> 1`] = `
<MobileInput__InputWrapper>
  <MobileInput__StyledIconWrapper>
    <FlagIcon
      number="+4407927755544"
    />
  </MobileInput__StyledIconWrapper>
  <MobileInput__StyledInput
    country="GB"
    maxLength="16"
    onBlur={[Function]}
    onFocus={[Function]}
    placeholder="Mobile Number"
    type="tel"
    value="+4407927755544"
  />
</MobileInput__InputWrapper>
`;
